Lab 05 - Data Wrangling
…
# Average for each station
met_avg_lz <- met_lz |> 
  group_by(USAFID) |> 
  summarise(
    across(
      c(temp, wind.sp, atm.press),
      function(x) mean(x, na.rm = TRUE)
    )
    # temp = mean(temp, na.rm = TRUE),
    # wind.sp = mean(wind.sp, na.rm = TRUE),
    # stm.press = mean(atm.press, na.rm = TRUE)
  )
met_avg_lz

## Source: local data table [1,595 x 4]
## Call:   `_DT1`[, .(temp = (function (x) 
## mean(x, na.rm = TRUE))(temp), wind.sp = (function (x) 
## mean(x, na.rm = TRUE))(wind.sp), atm.press = (function (x) 
## mean(x, na.rm = TRUE))(atm.press)), keyby = .(USAFID)]
## 
##   USAFID  temp wind.sp atm.press
##    <int> <dbl>   <dbl>     <dbl>
## 1 690150  33.2    3.48     1010.
## 2 720110  31.2    2.14      NaN 
## 3 720113  23.3    2.47      NaN 
## 4 720120  27.0    2.50      NaN 
## 5 720137  21.9    1.98      NaN 
## 6 720151  27.6    3.00      NaN 
## #  with 1,589 more rows
## 
## # Use as.data.table()/as.data.frame()/as_tibble() to access results
…
# mean for each station
met_avg_state_lz <- met |> 
  group_by(USAFID) |> 
  summarise(
    temp = mean(temp, na.rm = TRUE),
    wind.sp = mean(wind.sp, na.rm = TRUE),
    atm.press = mean(atm.press, na.rm = TRUE),
    STATE = unique(STATE), lat = unique(lat, na.rm = TRUE)[1], lon = unique(lon, na.rm = TRUE)[1]
  ) 
met_avg_state_lz <- na.omit(met_avg_state_lz)
met_avg_state_lz

## Source: local data table [1,595 x 7]
## Call:   `_DT2`[, .(temp = mean(temp, na.rm = TRUE), wind.sp = mean(wind.sp, 
##     na.rm = TRUE), atm.press = mean(atm.press, na.rm = TRUE), 
##     STATE = unique(STATE), lat = unique(lat, na.rm = TRUE)[1], 
##     lon = unique(lon, na.rm = TRUE)[1]), keyby = .(USAFID)]
## 
##   USAFID  temp wind.sp atm.press STATE   lat    lon
##    <int> <dbl>   <dbl>     <dbl> <chr> <dbl>  <dbl>
## 1 690150  33.2    3.48     1010. CA     34.3 -116. 
## 2 720110  31.2    2.14      NaN  TX     30.8  -98.7
## 3 720113  23.3    2.47      NaN  MI     42.5  -83.2
## 4 720120  27.0    2.50      NaN  SC     32.2  -80.7
## 5 720137  21.9    1.98      NaN  IL     41.4  -88.4
## 6 720151  27.6    3.00      NaN  TX     30.4 -104. 
## #  with 1,589 more rows
## 
## # Use as.data.table()/as.data.frame()/as_tibble() to access results
…
met_avg_state_lz_q4 <- met_avg_state_lz_q4 %>% mutate("average temperature level" =
  case_when(temp >= 25 ~ "High",
            temp < 20 ~ "Low",
            temp >=20 & temp < 25 ~ "Mid")
)
met_avg_state_lz_q4

## Source: local data table [48 x 7]
## Call:   `_DT3`[, .(number_of_na = sum(is.na(temp)), temp = mean(temp, 
##     na.rm = TRUE), wind.sp = mean(wind.sp, na.rm = TRUE), atm.press = mean(atm.press, 
##     na.rm = TRUE), STATE = unique(STATE), number_of_station = .N), 
##     keyby = .(STATE)][, `:=`("STATE", NULL)][, `:=`(`average temperature level` = fcase(temp >= 
##     25, "High", temp < 20, "Low", temp >= 20 & temp < 25, "Mid"))]
## 
##   number_of_na  temp wind.sp atm.press STATE number_of_station average tempera
##          <int> <dbl>   <dbl>     <dbl> <chr>             <int> <chr>            
## 1         1400  26.2    1.57     1016. AL                44743 High             
## 2         1968  26.2    1.84     1015. AR                34829 High             
## 3          937  28.8    2.98     1011. AZ                34150 High             
## 4         5040  22.4    2.61     1013. CA               109392 Mid              
## 5         1645  19.5    3.08     1014. CO                78843 Low              
## 6          305  22.3    2.19     1015. CT                11767 Mid              
## #  with 42 more rows, and abbreviated variable name
## #   `average temperature level`
## 
## # Use as.data.table()/as.data.frame()/as_tibble() to access results
…
